






  ## ✅ हाल ही में दक्षिण कोरिया देश ने 15वे विश्व वानिकी कांग्रेस 2022 की अध्यक्षता की है
![South Korea Maps | Maps of South Korea (Republic of Korea)](https://ontheworldmap.com/south-korea/map-of-south-korea.jpg)

  ## ✅ हाल ही में एस.एस मुंद्रा भारतीय शेयर बाजार 'बॉम्बे स्टॉक एक्सचेंज' के नए अध्यक्ष बने है
![BSE named Ex RBI Deputy Governor SS Mundra as Chairman - PrepareExams](https://www.prepareexams.com/wp-content/uploads/2022/05/BSE-named-Ex-RBI-Deputy-Governor-SS-Mundra-as-Chairman.jpg)

  ## ✅ हाल ही में भारत विदेशों से सबसे अधिक प्रेषित धन प्राप्त करने वाला देश बन गया है
![How out of the money option works : an insight - iPleaders](https://blog.ipleaders.in/wp-content/uploads/2021/07/848365-rupee-istock-071519.jpg)



  # **[प्रतिदिन प्रैक्टिस सेट]**
  👉 https://forms.gle/cR3bZdaugCrsnNWY8
