















  ## ✅ हाल ही में केन्या नैरोबी में प्लास्टिक प्रदुषण से निपटने के लिए पाँचवी संयुक्त राष्ट्र पर्यावरण सभा का आयोजन किया गया है
![12 Facts About Plastic Pollution You Need to Know · Giving Compass](https://cdn.givingcompass.org/wp-content/uploads/2018/10/04155651/10-Facts-About-Plastic-Pollution-You-Absolutely-Need-to-Know.jpg)

  ## ✅ हाल ही में टेक कंपनी माइक्रोसॉफ्ट द्वारा हैदराबाद तेलंगाना में भारत का सबसे बड़ा डेटा सेंटर स्थापित किया गया है
![Microsoft to set up India's largest datacenter region in Hyderabad - Cities  News](https://akm-img-a-in.tosshub.com/indiatoday/images/story/202203/microsoft_1200x768.jpeg?xfNODWzRv4uZQ823MSksvmSPBZ7L_5Rl&size=770:433)

  ## ✅ हाल ही में भूपेंद्र यादव ने प्रधानमंत्री श्रम योगी मान-धन योजना के तहत दान-ए-पेंशन अभियान की शुरुआत की गयी है
![Employee Pension Scheme: कैसे तय होगा कितनी मिलेगी पेंशन? कैलकुलेशन और  फॉर्मूला क्या है, जानें सबकुछ | Zee Business Hindi](https://cdn.zeebiz.com/hindi/sites/default/files/2021/09/23/65654-employee-pension-scheme-1.png)

  ## ✅ हाल ही में Priyanka Nutkki भारत की 23वी महिला शतरंज ग्रांडमास्टर बनी है
![Priyanka Nutakki becomes the 23rd Woman Grandmaster of India - ChessBase  India](https://cbin.b-cdn.net/img/PR/Priyanka%20Nutakki_SQE8F_1000x685.jpeg)

  ## ✅ हाल ही में नारायण राणे ने महिलाओं के लिए 'समर्थ' नाम से एक विशेष उद्यमिता प्रोत्सान अभियान को शुरू किया है
![SAMARTH - Uddyamita Samadhan](https://uddyamitasamadhan.com/wp-content/uploads/2022/03/H20220307108942.jpg)

  ## ✅ हाल ही में नरेंद्र मोदी ने पुणे में छत्रपति शिवजी महाराज की प्रतिमा का अनावरण किया है
![Shiv Jayanti Special: The story behind world's first equestrian statue of Chhatrapati  Shivaji in Pune | Cities News,The Indian Express](https://images.indianexpress.com/2022/02/Shivaji-statue.jpg)

  ## ✅ हाल ही में पाकिस्तान देश FATF की ग्रे लिस्ट में शामिल हुआ है
![File:Pakistan ethnic map.svg - Wikimedia Commons](https://upload.wikimedia.org/wikipedia/commons/thumb/3/30/Pakistan_ethnic_map.svg/2050px-Pakistan_ethnic_map.svg.png)







  # **[प्रतिदिन प्रैक्टिस सेट]**
  👉 https://forms.gle/6xwPSwYQex9KutnB7
