


















  ## ✅ हाल ही में Charles Leclerc ने ऑस्ट्रेलियन ग्रैंड प्रिक्स 2022 का खिताब जीता है
![Australian Grand Prix: Charles Leclerc puts Ferrari on pole position |  Other Sports News | Zee News](https://english.cdn.zeenews.com/sites/default/files/2022/04/09/1029971-charles-leclerc-ferrari-badge-background-2022-planetf1.jpg)

  ## ✅ हाल ही में भूपेंद्र यादव ने राष्ट्रीय बाघ प्राधिकरण के 20वी बैठक की अध्यक्षता की है
![bhupender-yadav - BJP has big plans for its RS member Bhupender Yadav -  Telegraph India](https://assets.telegraphindia.com/telegraph/2021/Jan/1612039743_dd1.jpg)

  ## ✅ हाल ही में खेले गए थाइलैंड ओपन बॉक्सिंग टूर्नामेंट 2022 में भारत ने कुल 3 स्वर्ण पदक जीते है
![Thailand Open International Boxing Tournament 2022: Ashish Kumar, Monika  among others storm into finals](https://staticg.sportskeeda.com/editor/2022/04/c6627-16492525860623-1920.jpg)

  ## ✅ हाल ही में उत्तराखंड राज्य सरकार ने भ्रष्टाचार से संबंधित शिकायतों को सीधे अधिकारियों के पास दर्ज करवाने के लिए 1064 भर्ष्टाचार विरोधी मोबाइल एप लांच किया है
![Uttarakhand: CM Dhami launches '1064 Anti-Corruption Mobile App' in  Dehradun - YouTube](https://i.ytimg.com/vi/j4Se_tOl0Y0/maxresdefault.jpg)

  ## ✅ हाल ही में UIDAI ने तकनिकी सहयोग के लिए ISRO के साथ समझौता किया है
![UIDAI tieup with ISRO for technical collaboration 2022](https://st.adda247.com/https://wpassets.adda247.com/wp-content/uploads/multisite/sites/5/2022/04/11071829/UIDAI-ISRO-ink-pact-for-technical-collaboration-1568x882.jpg)

  ## ✅ हाल ही में अमर मित्रा ने प्रतिष्ठित ओ हेनरी पुरस्कार जीता है
![Veteran Bengali Author Amar Mitra Wins Prestigious O. Henry Award](https://st.adda247.com/https://wpassets.adda247.com/wp-content/uploads/multisite/sites/5/2022/04/11074639/P9mjKm5H.jpg)

  ## ✅ हाल ही में हिमाचल प्रदेश राज्य के कांगड़ा चाय को यूरोपियन यूनियन से GI टैग मिला है
![Himachal Pradesh's Kangra Tea to get GI Tag from European Commission |  Sakshi Education](https://education.sakshi.com/sites/default/files/images/2022/04/12/kangratea-1649766101.jpg)

  ## ✅ हाल ही में South Central रेलवे ने 'एक स्टेशन एक उत्पाद' पहल शुरू किया है
![SCR Recruitment 2019 - Apply Online 4103 Apprentice Posts](https://www.tamilanjobs.com/wp-content/uploads/2019/10/South-Central-Railway.jpg)




  # **[प्रतिदिन प्रैक्टिस सेट]**
  👉 https://forms.gle/dZP1MpruLEm2UgB3A
