
















  ## ✅ हाल ही में भारतीय वायुसेना ने लद्दाख में दुनिया का सबसे ऊँचा मोबाइल एयर ट्रैफिक कंट्रोल टावर स्थापित किया है 
![IAF builds one of world&#39;s highest mobile ATC towers in Ladakh](https://aniportalimages.s3.amazonaws.com/media/details/E8aFA_CVgAANUzf20210810061810ffff20210810091657.jpg)

  ## ✅ हाल ही में भारत सरकार ने मवेशियों की नस्लों की शुद्ध किस्मो के संरक्षण के लिए IndiGau(इंडिगौ) नामक गेनोमिक चिप विकसित की है  
![Dr Jitendra Singh launched India&#39;s &amp; World&#39;s largest Cattle Genomic Chip &#39; IndiGau&#39; for Conservation of Indigenous Breeds](https://affairscloud.com/assets/uploads/2021/08/ST-Ministry-launches-country-first-cattle-genomic-chip-for-conservation-of-indigenous-breeds.jpg)

  ## ✅ हाल ही में भारत सरकार द्वारा 4 स्थलों को रामसर स्थलों में जोड़ा गया है, वर्तमान में भारत में कुल 46 रामसर स्थल हो चुके है  
![4 New Ramsar Sites of India - YouTube](https://i.ytimg.com/vi/NwIh_VMxNIk/maxresdefault.jpg)






  # **प्रतिदिन प्रैक्टिस सेट**
  👉 https://forms.gle/HZFPC46F6hXTu9eK9
