









  ## ✅ हाल ही में हरयाणा राज्य में भारत का पहला 'आनाज एटीएम' स्थापित किया गया है  
![Touch screen, fill bag: Country&#39;s first grain ATM in Gurugram | Gurgaon  News - Times of India](https://static.toiimg.com/photo/imgsize-84583,msid-84423886/84423886.jpg)

  ## ✅ हाल ही में कर्णाटक राज्य सरकार ने इलेक्ट्रिक बाइक टैक्सी योजना 2021 की शुरुआत की है 
![Karnataka Likely To Launch Electric Bike Taxis Project - Inc42 | DailyHunt](https://assets-news-bcdn.dailyhunt.in/cmd/resize/400x400_80/fetchdata16/images/1a/c6/da/1ac6da919b04b679cfbced808c6faea22b6cfafea574ad1bdc1aaad6d9f8e0c4.jpg)

  ## ✅ हाल ही में लद्दाख प्रशाषन ने सिक्किम राज्य के साथ 2025 तक लद्दाख को जैविक इकाई में बदलने के लिए एक समझौता ज्ञापन पर हस्ताक्षर किया है 
![Ladakh Signed MoU with Sikkim to Turn the UT Organic by 2025](https://affairscloud.com/assets/uploads/2021/07/Ladakh-signs-MoU-with-Sikkim-to-turn-the-UT-into-organic-entity.jpg)








  # **प्रतिदिन प्रैक्टिस सेट**
  👉 https://forms.gle/WJB5VZAd7UaZiKYB8
