











  ## ✅ हाल ही में प्रधानमंत्री नरेंद्र मोदी ने लखनऊ शहर में 'आज़ादी @ न्यू अर्बन इंडिया' सम्मलेन सह एक्सपो का उदघाटन किया है
![Independence Day: India को कैसे मिली अंग्रेजों से आजादी, इससे जुड़ी खास  बातें । वनइंडिया हिंदी - YouTube](https://i.ytimg.com/vi/g2Nys51XzUM/maxresdefault.jpg)

  ## ✅ हाल ही में मेघालय में स्थित उम्न्गोत नदी को भारत की सबसे स्वच्छ नदी घोषित किया गया है 
![Crystal clear Umngot river in Meghalaya woos tourists | Cleanest river in  Asia| Umngot river| Dawki river| Mawlynnong village| Meghalaya tourism](https://english.mathrubhumi.com/polopoly_fs/1.5903286.1628673951!/image/image.jpg_gen/derivatives/landscape_1080_600/image.jpg)












  # **[प्रतिदिन प्रैक्टिस सेट]**
  👉 https://forms.gle/QRgPHQGH9dW4EBKS7


