











  ## ✅ हाल ही में असम राज्य सरकार ने पुरे राज्य को अशांत छेत्र घोषित किया है
![Assam Map, Assam State Map, India](https://www.whereig.com/india/states/map/assam-map.gif)

  ## ✅ हाल ही में जारी एक रिपोर्ट के अनुसार भारत और पाकिस्तान देश जलवायु परिवर्तन के प्रति सर्वाधिक संवेदनशील है
![Pin on Maps](https://i.pinimg.com/originals/7a/84/a5/7a84a5d20e3a89586298a11da8e6f1a4.jpg)

  ## ✅ हाल ही में अक्षय विधानी यशराज फिल्म्स के नए CEO बने है
![YRF: Akshay Vidhani becomes the new CEO of Yash Raj Films, joined as studio  manager 17 years ago](https://anytvnews.com/wp-content/uploads/2022/03/YRF-Akshay-Vidhani-becomes-the-new-CEO-of-Yash-Raj.jpeg)





  # **[प्रतिदिन प्रैक्टिस सेट]**
  👉 https://forms.gle/6xwPSwYQex9KutnB7
