



















  ## ✅ हाल ही में रोहित शर्मा को T20 सीरीज के लिए भारतीय क्रिकेट टीम का कप्तान बनाया गया है
![Rohit Sharma To Be Named India&#39;s ODI And T20I Captain After T20 World Cup  2021- Reports](https://cricketaddictor.com/wp-content/uploads/2021/10/Untitled-design-2.png)

  ## ✅ हाल ही में घेरलू धार्मिक पर्यटन को बढ़ावा देने के लिए IRCTC ने 'श्री राम यात्रा' रेल सेवा की शुरुआत की है
![IRCTC Dekho Apna Desh: First Ramayana circuit train departed from Delhi;  see pics here - The Financial Express](https://images.financialexpress.com/2021/11/main-1200.jpg)

  ## ✅ हाल ही में 'हसे कला(Hase Art)' बहुत ज्यादा खबरों में रहा, इसका संबंध कर्णाटक राज्य से है
![Culture, Custom and Traditional Lifestyle of Karnataka | Jugaadin News](https://i0.wp.com/news.jugaadin.com/wp-content/uploads/2020/08/culture-of-Karnataka.png?fit=1268%2C628&ssl=1)

  ## ✅ हाल ही में कर्णाटक राज्य सरकार ने 18000 महिलाओं को स्वयं सहायता समूहों के सदस्यों के रूप में प्रशिक्षित किया है
![India Travel | Pictures: Karnataka map](https://www.indiamike.com/files/images/30/28/11/karnataka-map.jpg)

  ## ✅ हाल ही में भारतीय नौसेना ने प्रोजेक्ट 75 के तहत चौथी स्कोर्पियन पनडुब्बी 'वेला' को नौसेना में शामिल किया है
![Submarine Vela of Project 75 launched in Mumbai](https://bsmedia.business-standard.com/_media/bs/vdo/video-gallery/general/submarine-vela-of-project-75-launched-in-mumbai/thumb/submarine-vela-of-project-75-launched-in-mumbai-15571371703524_83747.png)

  ## ✅ हाल ही में चीन देश ने श्रीलंका देश से 8 मिलियन डॉलर की मांग की है क्युकी इस देश ने अपने देश में चीन के उर्वरक के इस्तेमाल को मना कर दिया है
![China Demands 8 Million Dollars from Sri Lanka after Sri Lanka rejects  Chinese Fertilizer - YouTube](https://i.ytimg.com/vi/cdGmdvndSyA/maxresdefault.jpg)






  # **[प्रतिदिन प्रैक्टिस सेट]**
  👉 https://forms.gle/1hevTKBybTP2HEJJ8
