











  ## ✅ हाल ही में नेपाल देश भारत के एकीकृत भुक्तान इंटरफ़ेस(UPI) को अपनाने वाला विश्व का पहला देश बन गया है
![Now you can use UPI payments in Nepal; 1st country to deploy India&#39;s UPI  payments](https://gumlet.assettype.com/nationalherald/2022-02/4d02b552-9fa3-44f1-b81a-e8c1ec639c35/Now_You_Can_Use_UPI_Payments_In_Nepal__1st_Country_To_Deploy_India_s_UPI_Payments.jpg?w=1200&h=750&auto=format%2Ccompress&fit=max)

  ## ✅ हाल ही में केरल के उडुक्की जिले में राज्य का पहला 'कारवां पार्क' खोला गया है
![Kerala Map - Google Search](https://www.burningcompass.com/countries/india/maps/kerala-map-hd.jpg)

  ## ✅ हाल ही में JP Morgan Bank मेटावर्स में स्थापित करने वाला दुनिया का पहला बैंक बन गया है
![JPMorgan Chase profits sink 70 percent as coronavirus slams economy](https://nypost.com/wp-content/uploads/sites/2/2020/04/jpmorgan.jpg?quality=80&strip=all)

  ## ✅ हाल ही में शिक्षा मंत्रालय ने वयस्कों की शिक्षा के लिए 'न्यू इंडिया लिटरेसी प्रोग्राम' लांच किया है
![Government approves &#39;New India Literacy Programme&#39; for Education of adults](https://st.adda247.com/https://wpassets.adda247.com/wp-content/uploads/multisite/sites/5/2022/02/18080515/1645077854phpuu9SUw.jpeg)

  ## ✅ हाल ही में रो खन्ना ने 'Dignity In A Digital Age' नामक पुस्तक लिखी है
![Dignity in a Digital Age: Making Tech Work for All of Us Tickets, Wed, Feb  23, 2022 at 7:00 PM | Eventbrite](https://img.evbuc.com/https%3A%2F%2Fcdn.evbuc.com%2Fimages%2F220084159%2F174686838717%2F1%2Foriginal.20220128-162103?w=1000&auto=format%2Ccompress&q=75&sharp=10&rect=0%2C16%2C564%2C282&s=6e46c4a0afa6aa047e6f2b60c7fd62b7)

  ## ✅ हाल ही में भारत देश इतिहास में पहली बार ओलंपिक समिति 2023 की मेजबानी करेगा
![Where is India located? – MapsofWorld.com](https://images.mapsofworld.com/india/india-location-map.jpg)

  ## ✅ हाल ही में इंदौर मध्य प्रदेश में भारत के पहले 'बायो-सी.एन.जी प्लांट' का उदघाटन किया गया है
![अब इंदौर के रीजनल पार्क में भी बनेगा बायो CNG प्लांट - bio cng plant to be  set up in indore regional park](https://static.punjabkesari.in/multimedia/2018_6image_16_21_584834000cng-ll.jpg)




  # **[प्रतिदिन प्रैक्टिस सेट]**
  👉 https://forms.gle/RC2yHCmgxtDxLvqR7
