














  ## ✅ हाल ही में रजनीश कुमार ने 'द कस्टोडियन ऑफ़ ट्रस्ट' नामक पुस्तक लिखा है
![The Custodian of Trust: A Banker&#39;s Memoir | Rajnish Kumar | Penguin|  9780670095773 - Bargain Book Hut Online](https://bargainbookhutonline.com/public/storage/products/4136/INvGLnGggUP6fdTHj74MksCInk34Gb6V6JohEFyD.jpeg)

  ## ✅ हाल ही में टाटा संस कंपनी ने 18,000 करोड़ रुपए में एयर इंडिया को अधिग्रहण कर लिया है 
![Tata group wins Air India bid for $2.4 bn | India&#39;s national carrier  privatised | World English News - YouTube](https://i.ytimg.com/vi/UZsHla-nTY8/maxresdefault.jpg)

  ## ✅ हाल ही में अंशु मलिक ने विश्व कुश्ती चैंपियनशिप में रजत पदक जीता है
![Anshu Malik | WrestlingTV](https://wrestlingtv.in/wp-content/uploads/2019/08/Anshu-1170x658.jpg)

  ## ✅ हाल ही में उत्तराखंड राज्य सरकार ने अपने 7 उत्पादों को GI टैग दिया है
![GEOGRAPHICAL INDICATION (GI) TAGS OF UTTARAKHAND – The IP Press](https://storage.googleapis.com/theippress/2021/05/7b379cc2-ip-press-blog-posters-2.png)

  ## ✅ हाल ही में जारी हेनले पासपोर्ट इंडेक्स 2021 में भारत का स्थान 90वा आया है, जापान और सिंगापूर के पासपोर्ट को सबसे अच्छा माना गया है  
![Japan and Singapore hold the first rank on the passport index](https://blogmedia.testbook.com/blog/wp-content/uploads/2021/10/henley-passport-index-c67555c8.jpg)





  # **[प्रतिदिन प्रैक्टिस सेट]**
  👉 https://forms.gle/QRgPHQGH9dW4EBKS7


