















  ## ✅ हाल ही में श्रुति सितारा मिस ट्रांस ग्लोबल युनिवर्स 2021 का खिताब जितने पहली भारतीय महिला बानी है
![Indian Sruthy Sithara won the title of Miss Trans Global Universe 2021](https://eknumbernews.com/wp-content/uploads/2021/12/Sruthy.jpg)

  ## ✅ हाल ही में अलका उपाध्याय NHAI-भारतीय राष्ट्रीय राजमार्ग प्राधिकरण की नई अध्यक्ष बनी है
![IAS Alka Upadhyay Biography, NHAI Chairperson, Life, Education, Career -  The SportsGrail](https://thesportsgrail.com/wp-content/uploads/2021/12/alka-upadhyaya-world-bank-stock-1-min.jpg)

  ## ✅ हाल ही में राजस्थान राज्य सरकार ने महिलाओं के लिए 'बैक टू वर्क' योजना लांच किया है
![Rajasthan Govt launches BACK TO WORK scheme for women - Burning Issues -  Free PDF Download - Blog](https://blog.studyiq.com/wp-content/uploads/2021/12/back-to-work.jpeg)

  ## ✅ हाल ही में अर्जेंटीना देश की टीम ने जूनियर पुरुष हॉकी विश्व कप 2021 का खिताब जीता है
![Argentina-map | Focus2Move](https://www.focus2move.com/wp-content/uploads/2014/03/Argentina-map.gif)

  ## ✅ हाल ही में इंडोनेशिया देश के जावा द्वीप पर स्थित सेमेरु ज्वालामुखी में बड़ा विस्फोट हुआ है
![WATCH: Indonesia&#39;s Semeru Volcano Erupts, People Flee in Terror](https://i.insider.com/61ab89d5983f360019c87090?width=600&format=jpeg&auto=webp)






  # **[प्रतिदिन प्रैक्टिस सेट]**
  👉 https://forms.gle/gLJKrwLG8a7g8wiN9
