








  ## ✅ हाल ही में एम्स्ट्राडम निदरलैंड में दुनिया का पहला 3D प्रिंटेड स्टेनलेस स्टील ब्रिज का उदघाट्न किया गया है  
![The Netherlands Physical Map](https://www.freeworldmaps.net/europe/netherlands/netherlands-physical-map.jpg)




  # **प्रतिदिन प्रैक्टिस सेट**
  👉 https://forms.gle/WJB5VZAd7UaZiKYB8
