












  ## ✅ हाल ही में भारत और नेपाल देश के बीच एक नई ट्रेन सेवा का सफल परिक्षण किया गया है 
![How to Travel from India to Tibet by Train?](https://data.tibettravel.org/assets/images/maps/nepal-map/india-nepal-route-map-small1.jpg)

  ## ✅ हाल ही में शिबाजी बैनर्जी को मोहन बागान रत्न से सम्मानित किया गया है 
![Shibaji Banerjee to be conferred with Mohun Bagan Ratna posthumously](https://st.adda247.com/https://wpassets.adda247.com/wp-content/uploads/multisite/sites/5/2021/07/20064258/mr-shibaji-banerjee_t9q68x1zl1u5139wbfa9xq9sn.jpg)

  ## ✅ हाल ही में बिमल जालान ने 'द इंडिया स्टोरी' नामक पुस्तक लिखी है 
![A new book titled &#39;The India Story&#39; by Bimal Jalan](https://st.adda247.com/https://wpassets.adda247.com/wp-content/uploads/multisite/sites/5/2021/07/19074818/Softcover.jpg)

  ## ✅ हाल ही में जापान देश ने विश्व में सबसे तेज़ इंटरनेट स्पीड का वर्ल्ड रिकॉर्ड बनाया है 
![Japan Map Stock Illustration - Download Image Now - iStock](https://media.istockphoto.com/vectors/japan-map-vector-id868083422)

  ## ✅ हाल ही में लुइस हैमिलटन ने ब्रिटिश ग्रांड प्रिक्स 2021 जीता है 
![Sir Lewis Hamilton! Seven time F1 champion knighted in UK New Year Honours  List](https://cdn.dnaindia.com/sites/default/files/styles/full/public/2020/12/31/946792-lewis-hamilton.jpg)

  ## ✅ हाल ही में बैंक ऑफ़ महाराष्ट्र ने NABARD के साथ समझौता किया है 
![Bank of Maharashtra may see rise in customer defaults due to pandemic impact](https://images.livemint.com/img/2021/06/06/1600x900/520f7396-6f9c-11eb-848d-61a48f38aea5_1614356143019_1614356182265_1622973550620.jpg)






  # **प्रतिदिन प्रैक्टिस सेट**
  👉 https://forms.gle/WJB5VZAd7UaZiKYB8
