



  ## ✅ हाल ही में 100 वर्ष पहले भारत से चोरी हुई अन्ननपूर्णा की मूर्ति को कनाडा देश से भारत वापस लाया गया है और इसे कशी विश्वनाथ मंदिर वाराणसी में स्थापित किया गया है
![Annapurna Idol Stolen 100 Years Ago Returns To India; To Be Installed At  Kashi Temple - YouTube](https://i.ytimg.com/vi/P5PWbqgIfhk/maxresdefault.jpg)

  ## ✅ हाल ही में पंजाब राज्य सरकार ने राज्य के सभी स्कूलों में सभी छात्रों के लिए पंजाबी भाषा अनिवार्य कर दिया है
![File:Punjab district map.png - Wikipedia](https://upload.wikimedia.org/wikipedia/commons/thumb/f/fa/Punjab_district_map.png/1200px-Punjab_district_map.png)

  ## ✅ हाल ही में 2022 में आयोजित राष्ट्रमंडल खेलो में पहली बार T-20 महिला क्रिकेट को शामिल किया गया है, पहला मैच भारत और ऑस्ट्रेलिया के बीच खेला जाएगा
![India Vs Australia To Open Women&#39;s Cricket Competition At 2022 Commonwealth  Games](https://img.republicworld.com/republic-prod/stories/promolarge/xhdpi/8tzzzo7ayzelf3wh_1636721768.jpeg)

  ## ✅ हाल ही में 'ऐतिहासिक संकल्प' बहुत चर्चा में रहा, इसका संबंध चीन देश से है
![Political Map of China - Nations Online Project](https://www.nationsonline.org/maps/China-Political-Map.jpg)

  ## ✅ हाल ही में मणिपुर राज्य में असम राइफल पर 'पीपल लिबरेशन आर्मी' के द्वारा आतंकी हमला किया गया
![Manipur में उग्रवादियों ने Assam Rifles के Soldiers पर किया हमला, 3 जवान  शहीद | वनइंडिया हिंदी - YouTube](https://i.ytimg.com/vi/KERzm7Yz88w/maxresdefault.jpg)









  # **[प्रतिदिन प्रैक्टिस सेट]**
  👉 https://forms.gle/1hevTKBybTP2HEJJ8
