







  ## ✅ हाल ही में इंग्लैंड के लिवरपूल शहर को विश्व धरोहर स्थलों की सूचि से हटा दिया गया है 
![Liverpool on Map of UK](http://www.worldeasyguides.com/wp-content/uploads/2012/08/Liverpool-on-Map-of-UK.jpg)






  # **प्रतिदिन प्रैक्टिस सेट**
  👉 https://forms.gle/WJB5VZAd7UaZiKYB8
