








  ## ✅ हाल ही में केंद्रीय निति आयोग के 'सतत विकास लक्ष्य शहरी भारत सूचकांक 2021' में शिमला शहर शीर्ष स्थान पर रहा है
![Himachal Pradesh District Map, Himachal Pradesh Political Map](https://www.burningcompass.com/countries/india/maps/himachal-pradesh-district-map.jpg)

  ## ✅ हाल ही में डी सी सिंघानिया को 'टाइम्स मैगज़ीन इंडिया ने लाइफ टाइम अचीवमेंट पुरस्कार 2021' से सम्मानित किया है
![Sir DC Singhania BioPic | Singhania University - YouTube](https://i.ytimg.com/vi/FNxCnrGR9I8/maxresdefault.jpg)

  ## ✅ हाल ही में स्वीडन देश की पहली महिल प्रधानमंत्री मैगडालेना एंडरसन को पद संभालने के कुछ घंटे बाद ही स्तीफा देना पड़ा
![Sweden&#39;s First Woman PM Magdalena Andersson Resigns Hours After Making  History](https://images.thequint.com/thequint%2F2021-11%2F12e9e30c-062e-4ef9-9e61-8a6b1b11b35a%2FFE8qb__WQAAK_oY.jpg?rect=0%2C0%2C1200%2C675)






  # **[प्रतिदिन प्रैक्टिस सेट]**
  👉 https://forms.gle/1hevTKBybTP2HEJJ8
