









  ## ✅ हाल ही में अशोक कुमार भारत के पहले 'राष्ट्रीय समुंद्री सुरक्षा समन्वयक' बने है
![National Maritime Security Coordinator: प्रथम राष्ट्रीय समुद्री सुरक्षा  समन्वयक की नियुक्ति की गई](https://spiderimg1.safalta.com/cdn-cgi/image/height=350/assets/images/safalta.com/2022/02/19/750x506/national-maritime-security-coordinator_1645209815.jpeg)

  ## ✅ हाल ही में Railtel को सार्वजनित छेत्र की संस्थाओं की श्रेणी में वर्ष 2020-21 के लिए वित्तीय रिपोर्टिंग में उत्कृष्टता के लिए पुरस्कार प्रदान किया गया है
![RailTel IPO GMP, RailTel share price, RailTel grey market premium,RailTel  IPO subscription status,RailTel allotment date | Markets News – India TV](https://resize.indiatvnews.com/en/resize/newbucket/1200_-/2021/02/railtelipogmp-1613645371.jpg)



  # **[प्रतिदिन प्रैक्टिस सेट]**
  👉 https://forms.gle/RC2yHCmgxtDxLvqR7
