













  ## ✅ हाल ही में हीरो मोटर वाहन कंपनी ने इलेक्ट्रॉनिक वाहनों के लिए नया EV ब्रांड 'वीडा' शुरू किया है
![Hero MotoCorp Electric Scooter Debut On 1st July - Under Vida Brand](https://www.rushlane.com/wp-content/uploads/2022/03/hero-motocorp-electric-scooter-vida-launch-1200x675.jpg)

  ## ✅ हाल ही में भारतीय रेलवे ने रेल दुर्घटनाओं से बचने के लिए स्वदेशी टक्कररोधी प्रणाली 'कवच' को लांच किया है
![KAVACH System of Indian Railways](https://st.adda247.com/https://www.adda247.com/jobs/wp-content/uploads/sites/4/2022/03/07154052/KAVACH-System-of-Indian-Railways-01.png)

  ## ✅ हाल ही में अन्नपूर्णा देवी ने शिक्षा संस्थानों में सुधार के लिए देश भर के 49 शिक्षिको को राष्ट्रीय ICT पुरस्कार से सम्मानित किया है
![Who is Annapurna Devi Yadav? Minister Inducted In Cabinet](https://www.shethepeople.tv/wp-content/uploads/2021/07/annapurna-devi.jpg)

  ## ✅ हाल ही में भारतीय सेना ने गुलमर्ग जम्मू कश्मीर में तीन दिवसीय 'शीतकालीन उत्सव' का आयोजन किया है
![Indian army soldier accidentally slips in snow at Gulmarg, reaches Pakistan  | Mag Files - MAG THE WEEKLY](https://magtheweekly.com/assets/uploads/updates/2020-01-31/7933_110637_updates.jpg)

  ## ✅ हाल ही में सिक्किम राज्य सरकार ने अम्मा और बहिनी योजना की शुरुआत की है
![Sikkim, India | Tourist map, Sikkim, Map](https://i.pinimg.com/originals/58/65/fe/5865fe119dc26153f88e7f3b18c1dd45.jpg)

  ## ✅ हाल ही में पुडुचेर्री में देश के पहले स्वदेशी फ्लाइंग ट्रेनर एयरक्राफ्ट 'हंसा एनजी' का ट्रॉयल पूरा किया गया है
![CSIR-NAL to launch HANSA-NG twin seater aircraft - YouTube](https://i.ytimg.com/vi/sKwfPXL5c5E/maxresdefault.jpg)








  # **[प्रतिदिन प्रैक्टिस सेट]**
  👉 https://forms.gle/6xwPSwYQex9KutnB7
