



























  ## ✅ हाल ही में बिहार राज्य ने पहले वैश्विक बौद्ध सम्मलेन की मेजबानी करेगा 
![Buddha Purnima—chasing enlightenment on the Buddha trail | Times of India  Travel](https://static.toiimg.com/photo/msid-75587673,width-96,height-65.cms)

  ## ✅ हाल ही में सुचना और प्रसारण मंत्रालय ने फर्जी खबरों को रोकने के लिए Telegram सोशल मीडिया प्लेटफार्म में अपना अकाउंट खोला है 
![Telegram: Everything you need to know about the messaging app | NextPit](https://fscl01.fonpit.de/userfiles/7687254/image/Telegram_Guide-w810h462.jpg)

  ## ✅ हाल ही में NITI आयोग ने शुन्य प्रदुषण वितरण वाहनों को बढ़ावा देने के लिए 'शुन्य' नामक अभियान की शुरुआत की है  
![What Causes Air Pollution? | NASA Climate Kids](https://climatekids.nasa.gov/resources/icons/air-pollution.png)

  ## ✅ हाल ही में अंतराष्ट्रीय ओलंपिक समिति ने उत्तर कोरिया देश को शीत ओलंपिक 2022 से निलंबित कर दिया है 
![North Korea Physical Map](https://www.freeworldmaps.net/asia/northkorea/northkorea-map-physical.jpg)

  ## ✅ हाल ही में जीव मिल्खा सिंह विश्व के पहले गोल्फर बने है जिन्हे दुबई गोल्डन वीजा दिया गया है
![Jeev Milkha Singh Becomes First Golfer In World To Be Granted 10-year Dubai  Golden Visa - जीव मिल्खा सिंह: भारत के स्टार खिलाड़ी को मिला बड़ा सम्मान,  दुबई का 10 साल का गोल्डन वीजा पाने वाले पहले गोल्फर बने - Amar Ujala Hindi  News Live](https://spiderimg.amarujala.com/assets/images/2021/09/08/jeev-milkha-singh_1631110775.png)




  # **[प्रतिदिन प्रैक्टिस सेट]**
  👉 https://forms.gle/G4i7wQs59Daj4P1s6


