










  ## ✅ हाल ही में बीजिंग चीन में 24वे शीतकालीन ओलंपिक खेल 2022 का आयोजित किया गया है
![NHL involvement fuels growing anticipation for Beijing 2022 Games - Olympic  News](https://stillmed.olympics.com/media/Images/News/2021/09/2021-09-08-Beijing-featured.jpg)

  ## ✅ हाल ही में भारत के एकमात्र खिलाडी आरिफ खान(स्कीयर) 24वे शीतकालीन ओलंपिक खेल 2022 में शामिल हुए है
![Constant practice takes Arif Khan to the Winter Olympics - The Hindu](https://www.thehindu.com/news/national/other-states/gqr394/article37837656.ece/ALTERNATES/LANDSCAPE_1200/Arif)

  ## ✅ हाल ही में आंध्र प्रदेश राज्य ने ग्रामीण छेत्रो की सफाई और स्वछता के लिए 'CLAP' अभियान प्रारंभ किया है
![Clean Andhra Pradesh (CLAP) Mission 2021, Swachh Andhra Corporation](https://www.yojanaschemehindi.com/wp-content/uploads/2021/10/clean-andhra-pradesh-CLAP-mission-min.jpg)

  ## ✅ हाल ही में नीरज चोपड़ा को 'लॉरियस वर्ल्ड ब्रेकथ्रू ऑफ़ द ईयर 2022' पुरस्कार के लिए नामांकित किया गया है
![Neeraj Chopra back in training at national camp in Patiala](https://img.olympicchannel.com/images/image/private/t_16-9_360-203_2x/f_auto/v1538355600/primary/cm5ympkbja0d5cexx7ab)

  ## ✅ हाल ही में त्रिपुरा राज्य में देश के तीसरे 'बॉर्डर-हाट' का उदघाटन किया गया है
![Tripura Map, Tripura State Map, Tripura ka Map](https://www.burningcompass.com/countries/india/maps/tripura-map.jpg)

  ## ✅ हाल ही में पश्चिम बंगाल राज्य ने प्री-प्राइमरी छात्रों के लिए खुले मैदान में कक्षाएं आयोजित करने के लिए 'पराय विद्यालय(पड़ोस स्कूल)' को शुरू किया है
![West Bengal Map | India world map, West bengal, Map](https://i.pinimg.com/736x/08/b7/61/08b761e741aaa1a3ca592fa38b78d0a2--west-bengal-maps.jpg)

  ## ✅ हाल ही में उत्तर प्रदेश राज्य की झांकी को गणतंत्र दिवस परेड में सर्वेश्रेष्ठ झांकी चुना गया है
![Republic Day Parade 2022: Uttar Pradesh Named as Best State Tableau,  Maharashtra Won the Popular Choice Award](https://affairscloud.com/assets/uploads/2022/02/Uttar-Pradesh-selected-as-best-state-tableau-of-Republic-Day-parade-2022_-Maharashtra-wins-in-popular-choice-category.jpg)











  # **[प्रतिदिन प्रैक्टिस सेट]**
  👉 https://forms.gle/RC2yHCmgxtDxLvqR7
